SPS_Data607_Week9_TidyVerse_DC
…
   # ) %>%
  # 
  # pivot_wider(
  #   names_from = Metric,      # turn metric names into columns
  #   values_from = Value       # fill cells with the values
  # )
df_imf_rate$IMF_Date <- sub("^X", "",df_imf_rate$IMF_Date)
df_imf_rate$IMF_Date <- as.Date(df_imf_rate$IMF_Date, format = "%d.%b.%y")
df_imf_rate

# A tibble: 720 × 3
   Currency     IMF_Date   C_Rate
   <chr>        <date>     <chr> 
 1 Chinese yuan 2026-01-02 <NA>  
 2 Chinese yuan 2026-01-05 6.9806
 3 Chinese yuan 2026-01-06 6.9803
 4 Chinese yuan 2026-01-07 6.9913
 5 Chinese yuan 2026-01-08 6.983 
 6 Chinese yuan 2026-01-09 6.982 
 7 Chinese yuan 2026-01-12 6.9746
 8 Chinese yuan 2026-01-13 6.9764
 9 Chinese yuan 2026-01-14 6.9732
10 Chinese yuan 2026-01-15 6.9714
# ℹ 710 more rows
…
